[
  {
    "_id": "1",
    "slug": "hip_owls",
    "cover_img": "/src/assets/img/projects/thumbnails/project_1.png",
    "title": "Hip Owls",
    "medium": "Digital print on matte paper. <br/> 297 x 297 mm",
    "description": "A digital illustration, drawn as a gift for a friend who has a fondness for owls and the color purple. May or may not have been an excuse to draw tiny balls of fluff wrapped in scarves and hats.",
    "create_date": "2015-08-14T00:00:00.000Z",
    "tags": [],
    "images": [
      {
        "id": 0,
        "img_url": "/src/assets/img/projects/contents/project_1_a.png",
        "title": "",
        "description": ""
      },
      {
        "id": 1,
        "img_url": "/src/assets/img/projects/contents/project_1_b.png",
        "title": "",
        "description": ""
      },
      {
        "id": 2,
        "img_url": "/src/assets/img/projects/contents/project_1_c.png",
        "title": "",
        "description": ""
      },
      {
        "id": 3,
        "img_url": "/src/assets/img/projects/contents/project_1_d.png",
        "title": "",
        "description": ""
      }
    ]
  },
  {
    "_id": "2",
    "slug": "the_commoner",
    "cover_img": "/src/assets/img/projects/thumbnails/project_2.png",
    "title": "The Commoner",
    "medium": "Digital print on matte paper. <br/> 420 x 594 mm",
    "description": "The Commoner was part of a series of illustrations made during my Studio Art studies in year 12. My theme for the year had been storytelling, with a specific focus on fairy-tales.",
    "create_date": "2015-09-02T00:00:00.000Z",
    "tags": [],
    "images": [
      {
        "id": 0,
        "img_url": "/src/assets/img/projects/contents/project_2_a.png",
        "title": "",
        "description": ""
      },
      {
        "id": 1,
        "img_url": "/src/assets/img/projects/contents/project_2_b.png",
        "title": "",
        "description": ""
      },
      {
        "id": 2,
        "img_url": "/src/assets/img/projects/contents/project_2_c.png",
        "title": "",
        "description": ""
      },
      {
        "id": 3,
        "img_url": "/src/assets/img/projects/contents/project_2_d.png",
        "title": "",
        "description": ""
      },
      {
        "id": 4,
        "img_url": "/src/assets/img/projects/contents/project_2_e.png",
        "title": "",
        "description": ""
      },
      {
        "id": 5,
        "img_url": "/src/assets/img/projects/contents/project_2_f.png",
        "title": "",
        "description": ""
      }
    ]
  },
  {
    "_id": "3",
    "slug": "a_body_of_bodies",
    "cover_img": "/src/assets/img/projects/thumbnails/project_3.png",
    "title": "A Body Of Bodies",
    "medium": "Digital print on birch wood. <br/> 160 X 280 mm",
    "description": "A university assignment, the theme of which was \"Exquisite Corpse: You Are What You Eat\". My response had been to explore the effects of unrestrained consumption through the metaphorical 'carcasses' that are left behind. Rabbits, with their status as an incredibly destructive invasive species in Australia, served as a parallel to humans and their impact to the environment.",
    "create_date": "2016-11-15T00:00:00.000Z",
    "tags": [],
    "images": [
      {
        "id": 0,
        "img_url": "/src/assets/img/projects/contents/project_3_a.png",
        "title": "",
        "description": ""
      }
    ]
  },
  {
    "_id": "4",
    "slug": "the_gazette_2017",
    "cover_img": "/src/assets/img/projects/thumbnails/project_4.png",
    "title": "The Gazette 2017",
    "medium": "Digital print. <br/> 297 x 420 mm",
    "description": "A collaboration between RMIT University and The Emerging Writers' Festival (EWF), The Gazette was across-disiplinary project published over the 11 days of the festival in print and online. Throughout it's 2017 run, I worked as a designer and an in-house illustrator.",
    "create_date": "2016-11-15T04:34:46.928Z",
    "tags": [],
    "images": [
      {
        "id": 0,
        "img_url": "/src/assets/img/projects/contents/project_4_a.png",
        "title": "",
        "description": ""
      },
      {
        "id": 1,
        "img_url": "/src/assets/img/projects/contents/project_4_b.png",
        "title": "",
        "description": ""
      }
    ]
  },
  {
    "_id": "5",
    "slug": "jackrabbit_rhyme",
    "cover_img": "/src/assets/img/projects/thumbnails/project_5.png",
    "title": "Jackrabbit Rhyme",
    "medium": "Digital print on birch wood. <br/> 210 x 297 mm",
    "description": "Jack is nimble, <br/> Jack is quick, <br/> Jack unlit the candlestick. <br/> Jack leaned in, Jack then said, <br/> “MoNSteRS waIT wHeRe yOU trEad.” <br/><br/> (Hunter grinned at the Hare at her back, <br/> Because the hunted here is Jack.)",
    "create_date": "2016-07-26T00:00:00.000Z",
    "tags": [],
    "images": [
      {
        "id": 0,
        "img_url": "/src/assets/img/projects/contents/project_5_a.png",
        "title": "",
        "description": ""
      },
      {
        "id": 1,
        "img_url": "/src/assets/img/projects/contents/project_5_b.png",
        "title": "",
        "description": ""
      },
      {
        "id": 2,
        "img_url": "/src/assets/img/projects/contents/project_5_c.png",
        "title": "",
        "description": ""
      },
      {
        "id": 3,
        "img_url": "/src/assets/img/projects/contents/project_5_d.png",
        "title": "",
        "description": ""
      },
      {
        "id": 4,
        "img_url": "/src/assets/img/projects/contents/project_5_e.png",
        "title": "",
        "description": ""
      },
      {
        "id": 5,
        "img_url": "/src/assets/img/projects/contents/project_5_f.png",
        "title": "",
        "description": ""
      }
    ]
  },
  {
    "_id": "6",
    "slug": "celestial_bureaucracies",
    "cover_img": "/src/assets/img/projects/thumbnails/project_6.png",
    "title": "Celestial Bureaucracies",
    "medium" : "Digital print on birch wood. <br/> 210 x 297 mm",
    "description": "Thus he had hardly seen the sea — had seen it but fleetingly in the course of hurried ascents to Olympus, and he had never actually traveled around it. He was in the habit of saying that what he was waiting for was the fall of the world; then, probably, a quiet moment would be granted in which, just before the end and having checked the last row of figures, he would be able to make a quick little tour. <br/><br/> —Franz Kafka, “Poseidon”",
    "create_date": "2017-07-31T00:00:00.000Z",
    "tags": [],
    "images": [
      {
        "id": 0,
        "img_url": "/src/assets/img/projects/contents/project_6_a.png",
        "title": "",
        "description": ""
      },
      {
        "id": 1,
        "img_url": "/src/assets/img/projects/contents/project_6_b.png",
        "title": "",
        "description": ""
      },
      {
        "id": 2,
        "img_url": "/src/assets/img/projects/contents/project_6_c.png",
        "title": "",
        "description": ""
      },
      {
        "id": 3,
        "img_url": "/src/assets/img/projects/contents/project_6_d.png",
        "title": "",
        "description": ""
      },
      {
        "id": 4,
        "img_url": "/src/assets/img/projects/contents/project_6_e.png",
        "title": "",
        "description": ""
      },
      {
        "id": 5,
        "img_url": "/src/assets/img/projects/contents/project_6_f.png",
        "title": "",
        "description": ""
      }
    ]
  },
  {
    "_id": "7",
    "slug": "this_train_terminates_at_the_next_stop",
    "cover_img": "/src/assets/img/projects/thumbnails/project_7.png",
    "title": "This Train Terminates At The Next Stop",
    "medium": "Digital print on archival matte paper. <br/> 297 x 420 mm",
    "description": "Passengers in passing.",
    "create_date": "2017-08-11T00:00:00.000Z",
    "tags": [],
    "images": [
      {
        "id": 0,
        "img_url": "/src/assets/img/projects/contents/project_7_a.png",
        "title": "",
        "description": ""
      },
      {
        "id": 1,
        "img_url": "/src/assets/img/projects/contents/project_7_b.png",
        "title": "",
        "description": ""
      },
      {
        "id": 2,
        "img_url": "/src/assets/img/projects/contents/project_7_c.png",
        "title": "",
        "description": ""
      },
      {
        "id": 3,
        "img_url": "/src/assets/img/projects/contents/project_7_d.png",
        "title": "",
        "description": ""
      },
      {
        "id": 4,
        "img_url": "/src/assets/img/projects/contents/project_7_e.png",
        "title": "",
        "description": ""
      },
      {
        "id": 5,
        "img_url": "/src/assets/img/projects/contents/project_7_f.png",
        "title": "",
        "description": ""
      }
    ]
  }
]